<?xml version="1.0" encoding="UTF-8" standalone="no"?>
<svg
   xmlns:dc="http://purl.org/dc/elements/1.1/"
   xmlns:cc="http://creativecommons.org/ns#"
   xmlns:rdf="http://www.w3.org/1999/02/22-rdf-syntax-ns#"
   xmlns:svg="http://www.w3.org/2000/svg"
   xmlns="http://www.w3.org/2000/svg"
   xmlns:sodipodi="http://sodipodi.sourceforge.net/DTD/sodipodi-0.dtd"
   xmlns:inkscape="http://www.inkscape.org/namespaces/inkscape"
   viewBox="0 0 4118 4118"
   xml:space="preserve"
   version="1.1"
   id="svg8"
   sodipodi:docname="temp.svg"
   inkscape:version="0.92.3 (2405546, 2018-03-11)"
   width="4118"
   height="4118"
   style="clip-rule:evenodd;fill-rule:evenodd;image-rendering:optimizeQuality;shape-rendering:geometricPrecision;text-rendering:geometricPrecision"><metadata
   id="metadata12"><rdf:RDF><cc:Work
       rdf:about=""><dc:format>image/svg+xml</dc:format><dc:type
         rdf:resource="http://purl.org/dc/dcmitype/StillImage" /><dc:title></dc:title></cc:Work></rdf:RDF></metadata><sodipodi:namedview
   pagecolor="#ffffff"
   bordercolor="#666666"
   borderopacity="1"
   objecttolerance="10"
   gridtolerance="10"
   guidetolerance="10"
   inkscape:pageopacity="0"
   inkscape:pageshadow="2"
   inkscape:window-width="1920"
   inkscape:window-height="960"
   id="namedview10"
   showgrid="false"
   inkscape:zoom="0.16209539"
   inkscape:cx="1990.8019"
   inkscape:cy="1935.5107"
   inkscape:window-x="0"
   inkscape:window-y="27"
   inkscape:window-maximized="1"
   inkscape:current-layer="svg8"
   inkscape:measure-start="3251.17,2554.05"
   inkscape:measure-end="2887.19,1678.02" />
 <defs
   id="defs4">
  <style
   type="text/css"
   id="style2">
    .fil0 {fill:black}
  </style>
 </defs>
  <path
   class="fil0"
   d="m 2418.898,2761.1688 c 208.9857,120.5687 349.075,346.7784 349.075,605.1398 0,385.8196 -313.4785,699.2981 -699.2982,699.2981 -385.8196,0 -699.2981,-313.4785 -699.2981,-699.2981 0,-258.3614 140.0892,-484.5711 349.075,-605.1398 V 401.4682 c 0,-191.76155 157.3133,-349.074915 349.0748,-349.074915 191.7616,0 349.075,157.313365 349.075,349.074915 V 706.90877 H 2573.44 v 89.56527 H 2416.6015 V 1177.7007 H 2573.44 v 89.5652 h -156.8385 v 379.9752 H 2573.44 v 89.5652 h -156.8385 v 380.9294 H 2573.44 v 89.5652 h -156.8385 v 557.3127 z m -214.727,129.7548 V 1454.4344 h -270.9924 v 1436.4892 c -207.8373,58.5619 -359.4093,249.1752 -359.4093,475.385 0,273.2889 221.6166,494.9055 494.9055,494.9055 273.289,0 494.9056,-221.6166 494.9056,-494.9055 0,-226.2098 -151.572,-416.8231 -359.4094,-475.385 z m 88.417,-57.4136 V 401.4682 c 0,-122.86519 -101.048,-223.91319 -223.9132,-223.91319 -122.8651,0 -223.9131,101.048 -223.9131,223.91319 V 2833.51 l -63.1551,36.7447 c -176.834,102.1963 -287.0682,291.6613 -287.0682,497.2022 0,316.9232 257.2132,572.9881 572.9881,572.9881 316.9234,0 572.9881,-257.2132 572.9881,-572.9881 0,-205.5409 -109.0859,-393.8576 -287.0681,-497.2022 l -63.155,-36.7447 z"
   id="path6"
   style="fill:#808080;fill-opacity:0.82745098;stroke-width:1.14827287"
   inkscape:connector-curvature="0"
   sodipodi:nodetypes="cssscsssccccccccccccccccccccccsssccsssccsssccc" />
</svg>